{
  "type": "FeatureCollection",
  "features": [
    {
      "type": "Feature",
      "id": 1577953,
      "geometry": {
        "type": "Point",
        "coordinates": [
          13.403042580725177,
          52.51995276275927
        ]
      },
      "properties": {
        "parkingEntity": {
          "centerPoint": {
            "type": "Point",
            "coordinates": [
              13.4030426,
              52.5199528
            ]
          },
          "capacity": 600,
          "timeZone": "Europe/Berlin",
          "openingHours": {
            "stringRepresentation": "Immer geöffnet",
            "simpleOpeningStatus": "geöffnet"
          },
          "priceInformation": {
            "stringRepresentation": "2€/Std\nmax 22€/Tag",
            "simplePriceStatus": "bezahlt"
          },
          "parkingTags": [
            "UNDERGROUND_PARKING",
            "PUBLIC",
            "OPEN",
            "PAID"
          ],
          "name": "City Quartier Dom-Aquarée/Radisson Blu Hotel",
          "entrancePoints": [
            {
              "entranceHeight": 210,
              "entrancePoint": {
                "type": "Point",
                "coordinates": [
                  13.40293470939,
                  52.51921524972
                ]
              },
              "heightUnit": "cm"
            }
          ]
        }
      }
    },
    {
      "type": "Feature",
      "id": 1577955,
      "geometry": {
        "type": "Polygon",
        "coordinates": [
          [
            [
              13.405287,
              52.5220589
            ],
            [
              13.4054165,
              52.521968
            ],
            [
              13.4054359,
              52.5219826
            ],
            [
              13.4054386,
              52.5219945
            ],
            [
              13.4054362,
              52.5220108
            ],
            [
              13.4055419,
              52.5219382
            ],
            [
              13.4055157,
              52.5219396
            ],
            [
              13.4054996,
              52.5219327
            ],
            [
              13.4054932,
              52.5219233
            ],
            [
              13.4054942,
              52.5219112
            ],
            [
              13.4059435,
              52.5215746
            ],
            [
              13.4058511,
              52.5215309
            ],
            [
              13.4055177,
              52.5217648
            ],
            [
              13.4054586,
              52.5217302
            ],
            [
              13.4052863,
              52.5218149
            ],
            [
              13.4052186,
              52.5218472
            ],
            [
              13.4051596,
              52.5218162
            ],
            [
              13.4050611,
              52.5218876
            ],
            [
              13.4051067,
              52.5219145
            ],
            [
              13.4050658,
              52.5219484
            ],
            [
              13.405287,
              52.5220589
            ]
          ]
        ]
      },
      "properties": {
        "parkingEntity": {
          "centerPoint": {
            "type": "Point",
            "coordinates": [
              13.4054502,
              52.5218301
            ]
          },
          "capacity": 41,
          "timeZone": "Europe/Berlin",
          "openingHours": {
            "stringRepresentation": "Immer geöffnet",
            "simpleOpeningStatus": "geöffnet"
          },
          "priceInformation": {
            "stringRepresentation": "Bewohner mit Parkausweis:\n   kostenlos\nAnsonsten:\n   9-0h\n      0,50€/15Min",
            "simplePriceStatus": "bezahlt"
          },
          "parkingTags": [
            "SURFACE_PARKING",
            "PUBLIC",
            "OPEN",
            "PAID"
          ],
          "occupancy": {
            "color": "ORANGE",
            "occupancyPredicted": {
              "parkingProbability": 54
            },
            "timestampDescription": {
              "unixSeconds": 1599736802
            }
          }
        }
      }
    },
    {
      "type": "Feature",
      "id": 1577957,
      "geometry": {
        "type": "Polygon",
        "coordinates": [
          [
            [
              13.4043768,
              52.5228856
            ],
            [
              13.4045637,
              52.5227385
            ],
            [
              13.4047621,
              52.5228418
            ],
            [
              13.4049947,
              52.5226701
            ],
            [
              13.4049743,
              52.5226598
            ],
            [
              13.4045407,
              52.5224396
            ],
            [
              13.4045871,
              52.5223962
            ],
            [
              13.4047676,
              52.5222633
            ],
            [
              13.4046792,
              52.5222184
            ],
            [
              13.4046473,
              52.5222021
            ],
            [
              13.4044163,
              52.5223764
            ],
            [
              13.4040435,
              52.5228405
            ],
            [
              13.4043768,
              52.5228856
            ]
          ]
        ]
      },
      "properties": {
        "parkingEntity": {
          "centerPoint": {
            "type": "Point",
            "coordinates": [
              13.4045114,
              52.522621
            ]
          },
          "capacity": 67,
          "timeZone": "Europe/Berlin",
          "openingHours": {
            "stringRepresentation": "Immer geöffnet",
            "simpleOpeningStatus": "geöffnet"
          },
          "priceInformation": {
            "stringRepresentation": "Bewohner mit Parkausweis:\n   kostenlos\nAnsonsten:\n   9-0h\n      0,50€/15Min",
            "simplePriceStatus": "bezahlt"
          },
          "parkingTags": [
            "SURFACE_PARKING",
            "CUSTOMER",
            "OPEN",
            "PAID"
          ],
          "occupancy": {
            "color": "ORANGE",
            "occupancyPredicted": {
              "parkingProbability": 50
            },
            "timestampDescription": {
              "unixSeconds": 1599736802
            }
          }
        }
      }
    },
    {
      "type": "Feature",
      "id": 1577954,
      "geometry": {
        "type": "Polygon",
        "coordinates": [
          [
            [
              13.4069076,
              52.5228826
            ],
            [
              13.4071694,
              52.5227
            ],
            [
              13.4070125,
              52.5226209
            ],
            [
              13.4069989,
              52.5226316
            ],
            [
              13.4069722,
              52.5226184
            ],
            [
              13.4069856,
              52.5226082
            ],
            [
              13.4069731,
              52.5226021
            ],
            [
              13.4068287,
              52.5225241
            ],
            [
              13.4067099,
              52.5224603
            ],
            [
              13.4064841,
              52.5226271
            ],
            [
              13.4064746,
              52.5226432
            ],
            [
              13.4064712,
              52.5226626
            ],
            [
              13.4069076,
              52.5228826
            ]
          ]
        ]
      },
      "properties": {
        "parkingEntity": {
          "centerPoint": {
            "type": "Point",
            "coordinates": [
              13.4068082,
              52.5226737
            ]
          },
          "capacity": 43,
          "timeZone": "Europe/Berlin",
          "openingHours": {
            "stringRepresentation": "Immer geöffnet",
            "simpleOpeningStatus": "geöffnet"
          },
          "priceInformation": {
            "stringRepresentation": "Bewohner mit Parkausweis:\n   kostenlos\nAnsonsten:\n   9-0h\n      0,50€/15Min",
            "simplePriceStatus": "bezahlt"
          },
          "parkingTags": [
            "SURFACE_PARKING",
            "CUSTOMER",
            "OPEN",
            "PAID"
          ],
          "occupancy": {
            "color": "GREEN",
            "occupancyPredicted": {
              "parkingProbability": 67
            },
            "timestampDescription": {
              "unixSeconds": 1599736802
            }
          }
        }
      }
    },
    {
      "type": "Feature",
      "id": 1575934,
      "geometry": {
        "type": "Point",
        "coordinates": [
          13.409335076921707,
          52.51855372910808
        ]
      },
      "properties": {
        "parkingEntity": {
          "centerPoint": {
            "type": "Point",
            "coordinates": [
              13.4093351,
              52.5185537
            ]
          },
          "capacity": 600,
          "timeZone": "Europe/Berlin",
          "openingHours": {
            "stringRepresentation": "Immer geöffnet",
            "simpleOpeningStatus": "geöffnet"
          },
          "parkingTags": [
            "CAR_PARK",
            "PUBLIC",
            "OPEN"
          ],
          "name": "Rathaus Passagen"
        }
      }
    },
    {
      "type": "Feature",
      "id": 1577956,
      "geometry": {
        "type": "Polygon",
        "coordinates": [
          [
            [
              13.4053997,
              52.5231289
            ],
            [
              13.4054272,
              52.5232013
            ],
            [
              13.4055539,
              52.5232128
            ],
            [
              13.405735,
              52.5232128
            ],
            [
              13.4059221,
              52.5232062
            ],
            [
              13.4061239,
              52.5231948
            ],
            [
              13.4062345,
              52.5231838
            ],
            [
              13.4063921,
              52.5231622
            ],
            [
              13.4065718,
              52.5231332
            ],
            [
              13.4067187,
              52.5231042
            ],
            [
              13.4067846,
              52.5230899
            ],
            [
              13.4067291,
              52.5229812
            ],
            [
              13.4066737,
              52.5230075
            ],
            [
              13.4065748,
              52.5229603
            ],
            [
              13.4062174,
              52.5230989
            ],
            [
              13.4061061,
              52.5231185
            ],
            [
              13.4060546,
              52.5231238
            ],
            [
              13.4058934,
              52.5231384
            ],
            [
              13.4056991,
              52.5231414
            ],
            [
              13.4054869,
              52.5231352
            ],
            [
              13.4053997,
              52.5231289
            ]
          ]
        ]
      },
      "properties": {
        "parkingEntity": {
          "centerPoint": {
            "type": "Point",
            "coordinates": [
              13.4061883,
              52.5231188
            ]
          },
          "capacity": 40,
          "timeZone": "Europe/Berlin",
          "openingHours": {
            "stringRepresentation": "Immer geöffnet",
            "simpleOpeningStatus": "geöffnet"
          },
          "priceInformation": {
            "stringRepresentation": "Bewohner mit Parkausweis:\n   kostenlos\nAnsonsten:\n   9-0h\n      0,50€/15Min",
            "simplePriceStatus": "bezahlt"
          },
          "parkingTags": [
            "SURFACE_PARKING",
            "PUBLIC",
            "OPEN",
            "PAID"
          ],
          "occupancy": {
            "color": "ORANGE",
            "occupancyPredicted": {
              "parkingProbability": 41
            },
            "timestampDescription": {
              "unixSeconds": 1599736802
            }
          }
        }
      }
    },
    {
      "type": "Feature",
      "id": 1575930,
      "geometry": {
        "type": "Polygon",
        "coordinates": [
          [
            [
              13.4086232,
              52.5175976
            ],
            [
              13.4089294,
              52.5173711
            ],
            [
              13.4094192,
              52.5176192
            ],
            [
              13.4098147,
              52.5179521
            ],
            [
              13.4098253,
              52.5179921
            ],
            [
              13.4096532,
              52.5181248
            ],
            [
              13.4086232,
              52.5175976
            ]
          ]
        ]
      },
      "properties": {
        "parkingEntity": {
          "centerPoint": {
            "type": "Point",
            "coordinates": [
              13.4092428,
              52.5177378
            ]
          },
          "capacity": 105,
          "timeZone": "Europe/Berlin",
          "openingHours": {
            "stringRepresentation": "Immer geöffnet",
            "simpleOpeningStatus": "geöffnet"
          },
          "priceInformation": {
            "stringRepresentation": "Bewohner mit Parkausweis:\n   kostenlos\nAnsonsten:\n   Mo-Fr 9-20h\n      0,50€/15Min\n   Sa 9-18h\n      0,50€/15Min",
            "simplePriceStatus": "bezahlt"
          },
          "parkingTags": [
            "SURFACE_PARKING",
            "PUBLIC",
            "OPEN",
            "PAID"
          ],
          "name": "Gustav-Böß-Straße",
          "entrancePoints": [
            {
              "entrancePoint": {
                "type": "Point",
                "coordinates": [
                  13.40871361548,
                  52.51764229734
                ]
              }
            },
            {
              "entrancePoint": {
                "type": "Point",
                "coordinates": [
                  13.40955075731,
                  52.51807848685
                ]
              }
            }
          ],
          "occupancy": {
            "color": "ORANGE",
            "occupancyPredicted": {
              "parkingProbability": 65
            },
            "timestampDescription": {
              "unixSeconds": 1599736802
            }
          }
        }
      }
    },
    {
      "type": "Feature",
      "id": 1575932,
      "geometry": {
        "type": "Polygon",
        "coordinates": [
          [
            [
              13.409492,
              52.5172714
            ],
            [
              13.409629,
              52.517214
            ],
            [
              13.4100906,
              52.5176301
            ],
            [
              13.4103321,
              52.5178461
            ],
            [
              13.4105865,
              52.5180549
            ],
            [
              13.4109762,
              52.5183596
            ],
            [
              13.4113339,
              52.5186494
            ],
            [
              13.4117159,
              52.5188852
            ],
            [
              13.4116584,
              52.5189118
            ],
            [
              13.4114439,
              52.5187897
            ],
            [
              13.4111255,
              52.5186048
            ],
            [
              13.4108481,
              52.5184289
            ],
            [
              13.4102483,
              52.5179562
            ],
            [
              13.409492,
              52.5172714
            ]
          ]
        ]
      },
      "properties": {
        "parkingEntity": {
          "centerPoint": {
            "type": "Point",
            "coordinates": [
              13.410465,
              52.5180155
            ]
          },
          "capacity": 74,
          "timeZone": "Europe/Berlin",
          "openingHours": {
            "stringRepresentation": "Immer geöffnet",
            "simpleOpeningStatus": "geöffnet"
          },
          "priceInformation": {
            "stringRepresentation": "Bewohner mit Parkausweis:\n   kostenlos\nAnsonsten:\n   Mo-Fr 9-20h\n      0,50€/15Min\n   Sa 9-18h\n      0,50€/15Min",
            "simplePriceStatus": "bezahlt"
          },
          "parkingTags": [
            "SURFACE_PARKING",
            "PUBLIC",
            "OPEN",
            "PAID"
          ],
          "occupancy": {
            "color": "ORANGE",
            "occupancyPredicted": {
              "parkingProbability": 51
            },
            "timestampDescription": {
              "unixSeconds": 1599736802
            }
          }
        }
      }
    },
    {
      "type": "Feature",
      "id": 1575931,
      "geometry": {
        "type": "Polygon",
        "coordinates": [
          [
            [
              13.4104442,
              52.5175948
            ],
            [
              13.4105194,
              52.5173825
            ],
            [
              13.4107609,
              52.5174158
            ],
            [
              13.4107839,
              52.5173526
            ],
            [
              13.4112454,
              52.517422
            ],
            [
              13.4110669,
              52.5178625
            ],
            [
              13.4113621,
              52.5181188
            ],
            [
              13.4112288,
              52.5182532
            ],
            [
              13.4104442,
              52.5175948
            ]
          ]
        ]
      },
      "properties": {
        "parkingEntity": {
          "centerPoint": {
            "type": "Point",
            "coordinates": [
              13.4109109,
              52.5177041
            ]
          },
          "capacity": 68,
          "timeZone": "Europe/Berlin",
          "openingHours": {
            "stringRepresentation": "Immer geöffnet",
            "simpleOpeningStatus": "geöffnet"
          },
          "priceInformation": {
            "stringRepresentation": "Bewohner mit Parkausweis:\n   kostenlos\nAnsonsten:\n   Mo-Fr 9-20h\n      0,50€/15Min\n   Sa 9-18h\n      0,50€/15Min",
            "simplePriceStatus": "bezahlt"
          },
          "parkingTags": [
            "SURFACE_PARKING",
            "PUBLIC",
            "OPEN",
            "PAID"
          ],
          "name": "Grunerstraße",
          "occupancy": {
            "color": "ORANGE",
            "occupancyPredicted": {
              "parkingProbability": 48
            },
            "timestampDescription": {
              "unixSeconds": 1599736802
            }
          }
        }
      }
    },
    {
      "type": "Feature",
      "id": 1577944,
      "geometry": {
        "type": "Polygon",
        "coordinates": [
          [
            [
              13.4029321,
              52.5152373
            ],
            [
              13.4027484,
              52.5153671
            ],
            [
              13.4025432,
              52.5152593
            ],
            [
              13.4027283,
              52.5151247
            ],
            [
              13.4029321,
              52.5152373
            ]
          ]
        ]
      },
      "properties": {
        "parkingEntity": {
          "centerPoint": {
            "type": "Point",
            "coordinates": [
              13.4027378,
              52.5152467
            ]
          },
          "capacity": 13,
          "timeZone": "Europe/Berlin",
          "openingHours": {
            "stringRepresentation": "Immer geöffnet",
            "simpleOpeningStatus": "geöffnet"
          },
          "priceInformation": {
            "stringRepresentation": "Bewohner mit Parkausweis:\n   kostenlos\nAnsonsten:\n   Mo-Sa 9-22h\n      0,50€/15Min",
            "simplePriceStatus": "bezahlt"
          },
          "parkingTags": [
            "SURFACE_PARKING",
            "PUBLIC",
            "OPEN",
            "PAID"
          ],
          "occupancy": {
            "color": "RED",
            "occupancyPredicted": {
              "parkingProbability": 30
            },
            "timestampDescription": {
              "unixSeconds": 1599736802
            }
          }
        }
      }
    },
    {
      "type": "Feature",
      "id": 1577945,
      "geometry": {
        "type": "Polygon",
        "coordinates": [
          [
            [
              13.4006274,
              52.5152921
            ],
            [
              13.400722,
              52.5151973
            ],
            [
              13.4011546,
              52.5153458
            ],
            [
              13.401112,
              52.5153901
            ],
            [
              13.401065,
              52.5154414
            ],
            [
              13.4006274,
              52.5152921
            ]
          ]
        ]
      },
      "properties": {
        "parkingEntity": {
          "centerPoint": {
            "type": "Point",
            "coordinates": [
              13.4008917,
              52.5153191
            ]
          },
          "capacity": 15,
          "timeZone": "Europe/Berlin",
          "openingHours": {
            "stringRepresentation": "Immer geöffnet",
            "simpleOpeningStatus": "geöffnet"
          },
          "priceInformation": {
            "stringRepresentation": "Bewohner mit Parkausweis:\n   kostenlos\nAnsonsten:\n   Mo-Sa 9-22h\n      0,50€/15Min",
            "simplePriceStatus": "bezahlt"
          },
          "parkingTags": [
            "SURFACE_PARKING",
            "PUBLIC",
            "OPEN",
            "PAID"
          ],
          "occupancy": {
            "color": "RED",
            "occupancyPredicted": {
              "parkingProbability": 30
            },
            "timestampDescription": {
              "unixSeconds": 1599736802
            }
          }
        }
      }
    },
    {
      "type": "Feature",
      "id": 1575926,
      "geometry": {
        "type": "Point",
        "coordinates": [
          13.413021206851717,
          52.523231341712126
        ]
      },
      "properties": {
        "parkingEntity": {
          "centerPoint": {
            "type": "Point",
            "coordinates": [
              13.4130212,
              52.5232313
            ]
          },
          "capacity": 300,
          "timeZone": "Europe/Berlin",
          "openingHours": {
            "stringRepresentation": "Immer geöffnet",
            "simpleOpeningStatus": "geöffnet"
          },
          "priceInformation": {
            "stringRepresentation": "",
            "simplePriceStatus": "kostenlos"
          },
          "parkingTags": [
            "CAR_PARK",
            "PUBLIC",
            "OPEN",
            "FREE"
          ],
          "name": "Mitte, Hotel Park Inn",
          "entrancePoints": [
            {
              "entrancePoint": {
                "type": "Point",
                "coordinates": [
                  13.41267830715,
                  52.52348079142
                ]
              }
            }
          ]
        }
      }
    },
    {
      "type": "Feature",
      "id": 1577952,
      "geometry": {
        "type": "Polygon",
        "coordinates": [
          [
            [
              13.3936898,
              52.5194103
            ],
            [
              13.3939047,
              52.5194244
            ],
            [
              13.393928,
              52.5192928
            ],
            [
              13.3938136,
              52.5192853
            ],
            [
              13.3937131,
              52.5192787
            ],
            [
              13.3936898,
              52.5194103
            ]
          ]
        ]
      },
      "properties": {
        "parkingEntity": {
          "centerPoint": {
            "type": "Point",
            "coordinates": [
              13.3938089,
              52.5193516
            ]
          },
          "capacity": 8,
          "timeZone": "Europe/Berlin",
          "openingHours": {
            "stringRepresentation": "Immer geöffnet",
            "simpleOpeningStatus": "geöffnet"
          },
          "parkingTags": [
            "SURFACE_PARKING",
            "PUBLIC",
            "OPEN"
          ],
          "occupancy": {
            "color": "RED",
            "occupancyPredicted": {
              "parkingProbability": 31
            },
            "timestampDescription": {
              "unixSeconds": 1599736802
            }
          }
        }
      }
    },
    {
      "type": "Feature",
      "id": 1575954,
      "geometry": {
        "type": "Point",
        "coordinates": [
          13.40576477538702,
          52.513189137230576
        ]
      },
      "properties": {
        "parkingEntity": {
          "centerPoint": {
            "type": "Point",
            "coordinates": [
              13.4057648,
              52.5131891
            ]
          },
          "capacity": 20,
          "timeZone": "Europe/Berlin",
          "openingHours": {
            "stringRepresentation": "Sa 8-15h\n   geöffnet\nMo-Fr 8-20h\n   geöffnet",
            "simpleOpeningStatus": "geöffnet"
          },
          "priceInformation": {
            "stringRepresentation": "Mo-Fr 8-20h\n   1€/Std\n   154,28€/Monat\n   bis 1Std: 1€\n   bis 1Std: kostenlos\nSa 8-15h\n   1€/Std\n   154,28€/Monat\n   bis 1Std: 1€\n   bis 1Std: kostenlos",
            "simplePriceStatus": "bezahlt"
          },
          "parkingTags": [
            "UNDERGROUND_PARKING",
            "PUBLIC",
            "OPEN",
            "PAID"
          ],
          "name": "Fischerinsel Tiefgarage",
          "entrancePoints": [
            {
              "entranceHeight": 210,
              "entrancePoint": {
                "type": "Point",
                "coordinates": [
                  13.40641577986,
                  52.51343490135
                ]
              },
              "heightUnit": "cm"
            }
          ]
        }
      }
    },
    {
      "type": "Feature",
      "id": 1575913,
      "geometry": {
        "type": "Polygon",
        "coordinates": [
          [
            [
              13.4170691,
              52.5208132
            ],
            [
              13.417108,
              52.5208444
            ],
            [
              13.4171494,
              52.5208761
            ],
            [
              13.4169699,
              52.5209572
            ],
            [
              13.4168655,
              52.5210077
            ],
            [
              13.4168496,
              52.5210538
            ],
            [
              13.4168998,
              52.521094
            ],
            [
              13.4169673,
              52.5211493
            ],
            [
              13.416876,
              52.5211908
            ],
            [
              13.4167172,
              52.5213121
            ],
            [
              13.4166312,
              52.5213514
            ],
            [
              13.4163575,
              52.5211328
            ],
            [
              13.4170691,
              52.5208132
            ]
          ]
        ]
      },
      "properties": {
        "parkingEntity": {
          "centerPoint": {
            "type": "Point",
            "coordinates": [
              13.4167275,
              52.5211011
            ]
          },
          "capacity": 44,
          "timeZone": "Europe/Berlin",
          "openingHours": {
            "stringRepresentation": "Immer geöffnet",
            "simpleOpeningStatus": "geöffnet"
          },
          "parkingTags": [
            "UNDERGROUND_PARKING",
            "PUBLIC",
            "OPEN"
          ],
          "occupancy": {
            "color": "ORANGE",
            "occupancyPredicted": {
              "parkingProbability": 34
            },
            "timestampDescription": {
              "unixSeconds": 1599736802
            }
          }
        }
      }
    },
    {
      "type": "Feature",
      "id": 1575935,
      "geometry": {
        "type": "Point",
        "coordinates": [
          13.41666409120901,
          52.51944525081739
        ]
      },
      "properties": {
        "parkingEntity": {
          "centerPoint": {
            "type": "Point",
            "coordinates": [
              13.4166641,
              52.5194453
            ]
          },
          "capacity": 1590,
          "timeZone": "Europe/Berlin",
          "openingHours": {
            "stringRepresentation": "7-0:30h\n   geöffnet",
            "simpleOpeningStatus": "geöffnet"
          },
          "priceInformation": {
            "stringRepresentation": "1,50€/Std\nbis 1Std: 1€\nbezahlt/Tag (max 12€)\nmax 84€/7Tage",
            "simplePriceStatus": "bezahlt"
          },
          "parkingTags": [
            "CAR_PARK",
            "PUBLIC",
            "OPEN",
            "PAID"
          ],
          "name": "Alexa"
        }
      }
    },
    {
      "type": "Feature",
      "id": 1575915,
      "geometry": {
        "type": "Polygon",
        "coordinates": [
          [
            [
              13.4176105,
              52.5207306
            ],
            [
              13.4175382,
              52.5207525
            ],
            [
              13.4174557,
              52.5207776
            ],
            [
              13.417374,
              52.5208024
            ],
            [
              13.4170418,
              52.5203974
            ],
            [
              13.4171236,
              52.5203725
            ],
            [
              13.4172116,
              52.5203458
            ],
            [
              13.4172784,
              52.5203255
            ],
            [
              13.4176105,
              52.5207306
            ]
          ]
        ]
      },
      "properties": {
        "parkingEntity": {
          "centerPoint": {
            "type": "Point",
            "coordinates": [
              13.4173261,
              52.5205639
            ]
          },
          "capacity": 38,
          "timeZone": "Europe/Berlin",
          "openingHours": {
            "stringRepresentation": "Immer geöffnet",
            "simpleOpeningStatus": "geöffnet"
          },
          "priceInformation": {
            "stringRepresentation": "Bewohner mit Parkausweis:\n   kostenlos\nAnsonsten:\n   Mo-Fr 9-20h\n      0,25€/15Min\n   Sa 9-18h\n      0,25€/15Min",
            "simplePriceStatus": "bezahlt"
          },
          "parkingTags": [
            "SURFACE_PARKING",
            "PUBLIC",
            "OPEN",
            "PAID"
          ],
          "occupancy": {
            "color": "ORANGE",
            "occupancyPredicted": {
              "parkingProbability": 34
            },
            "timestampDescription": {
              "unixSeconds": 1599736802
            }
          }
        }
      }
    },
    {
      "type": "Feature",
      "id": 1575916,
      "geometry": {
        "type": "Polygon",
        "coordinates": [
          [
            [
              13.4171168,
              52.5211512
            ],
            [
              13.4169248,
              52.5212266
            ],
            [
              13.4169488,
              52.5212492
            ],
            [
              13.4169649,
              52.5212645
            ],
            [
              13.417157,
              52.5211892
            ],
            [
              13.4171168,
              52.5211512
            ]
          ]
        ]
      },
      "properties": {
        "parkingEntity": {
          "centerPoint": {
            "type": "Point",
            "coordinates": [
              13.4170409,
              52.5212079
            ]
          },
          "capacity": 3,
          "timeZone": "Europe/Berlin",
          "openingHours": {
            "stringRepresentation": "Immer geöffnet",
            "simpleOpeningStatus": "geöffnet"
          },
          "priceInformation": {
            "stringRepresentation": "Bewohner mit Parkausweis:\n   kostenlos\nAnsonsten:\n   Mo-Fr 9-20h\n      0,25€/15Min\n   Sa 9-18h\n      0,25€/15Min",
            "simplePriceStatus": "bezahlt"
          },
          "parkingTags": [
            "SURFACE_PARKING",
            "PUBLIC",
            "OPEN",
            "PAID"
          ],
          "occupancy": {
            "color": "RED",
            "occupancyPredicted": {
              "parkingProbability": 29
            },
            "timestampDescription": {
              "unixSeconds": 1599736802
            }
          }
        }
      }
    },
    {
      "type": "Feature",
      "id": 1575914,
      "geometry": {
        "type": "Polygon",
        "coordinates": [
          [
            [
              13.4173043,
              52.5203137
            ],
            [
              13.4173744,
              52.5202925
            ],
            [
              13.417524,
              52.5202472
            ],
            [
              13.4178404,
              52.5206348
            ],
            [
              13.4178588,
              52.5206573
            ],
            [
              13.4177849,
              52.5206796
            ],
            [
              13.4176391,
              52.5207237
            ],
            [
              13.4173043,
              52.5203137
            ]
          ]
        ]
      },
      "properties": {
        "parkingEntity": {
          "centerPoint": {
            "type": "Point",
            "coordinates": [
              13.4175815,
              52.5204855
            ]
          },
          "capacity": 37,
          "timeZone": "Europe/Berlin",
          "openingHours": {
            "stringRepresentation": "Immer geöffnet",
            "simpleOpeningStatus": "geöffnet"
          },
          "priceInformation": {
            "stringRepresentation": "Bewohner mit Parkausweis:\n   kostenlos\nAnsonsten:\n   Mo-Fr 9-20h\n      0,25€/15Min\n   Sa 9-18h\n      0,25€/15Min",
            "simplePriceStatus": "bezahlt"
          },
          "parkingTags": [
            "SURFACE_PARKING",
            "PUBLIC",
            "OPEN",
            "PAID"
          ],
          "occupancy": {
            "color": "ORANGE",
            "occupancyPredicted": {
              "parkingProbability": 35
            },
            "timestampDescription": {
              "unixSeconds": 1599736802
            }
          }
        }
      }
    },
    {
      "type": "Feature",
      "id": 1575919,
      "geometry": {
        "type": "Polygon",
        "coordinates": [
          [
            [
              13.4169298,
              52.523841
            ],
            [
              13.4176352,
              52.5235538
            ],
            [
              13.4175601,
              52.5234738
            ],
            [
              13.4172329,
              52.523309
            ],
            [
              13.4166079,
              52.5235668
            ],
            [
              13.4169298,
              52.523841
            ]
          ]
        ]
      },
      "properties": {
        "parkingEntity": {
          "centerPoint": {
            "type": "Point",
            "coordinates": [
              13.4171146,
              52.5235669
            ]
          },
          "capacity": 67,
          "timeZone": "Europe/Berlin",
          "openingHours": {
            "stringRepresentation": "Immer geöffnet",
            "simpleOpeningStatus": "geöffnet"
          },
          "priceInformation": {
            "stringRepresentation": "Bewohner mit Parkausweis:\n   kostenlos\nAnsonsten:\n   Mo-Fr 9-20h\n      0,50€/15Min\n   Sa 9-18h\n      0,50€/15Min",
            "simplePriceStatus": "bezahlt"
          },
          "parkingTags": [
            "SURFACE_PARKING",
            "PUBLIC",
            "OPEN",
            "PAID"
          ],
          "occupancy": {
            "color": "ORANGE",
            "occupancyPredicted": {
              "parkingProbability": 63
            },
            "timestampDescription": {
              "unixSeconds": 1599736802
            }
          }
        }
      }
    }
  ],
  "debugMessages": []
}